$MeshFormat
2.2 0 8
$EndMeshFormat
$Nodes
63
1 0 0 0
2 1 0 0
3 1 0.1 0
4 0 0.1 0
5 0.09999999999981414 0 0
6 0.1999999999995569 0 0
7 0.299999999999265 0 0
8 0.3999999999989731 0 0
9 0.4999999999986921 0 0
10 0.599999999998945 0 0
11 0.6999999999992088 0 0
12 0.7999999999994725 0 0
13 0.8999999999997362 0 0
14 0.8999999999995836 0.1 0
15 0.8 0.1 0
16 0.7000000000006938 0.1 0
17 0.6000000000013874 0.1 0
18 0.5000000000020595 0.1 0
19 0.400000000001665 0.1 0
20 0.3000000000012487 0.1 0
21 0.2000000000008325 0.1 0
22 0.1000000000004162 0.1 0
23 0.04999999999990707 0 0
24 0.1000000000001152 0.05 0
25 0.0500000000002081 0.1 0
26 0 0.05 0
27 0.05000000000005758 0.05 0
28 0.1499999999996855 0 0
29 0.2000000000001947 0.05 0
30 0.1500000000006244 0.1 0
31 0.1500000000001549 0.05 0
32 0.249999999999411 0 0
33 0.3000000000002568 0.05 0
34 0.2500000000010406 0.1 0
35 0.2500000000002257 0.05 0
36 0.3499999999991191 0 0
37 0.4000000000003191 0.05 0
38 0.3500000000014569 0.1 0
39 0.350000000000288 0.05 0
40 0.4499999999988326 0 0
41 0.5000000000003758 0.05 0
42 0.4500000000018622 0.1 0
43 0.4500000000003475 0.05 0
44 0.5499999999988185 0 0
45 0.6000000000001662 0.05 0
46 0.5500000000017234 0.1 0
47 0.550000000000271 0.05 0
48 0.6499999999990769 0 0
49 0.6999999999999513 0.05 0
50 0.6500000000010406 0.1 0
51 0.6500000000000588 0.05 0
52 0.7499999999993406 0 0
53 0.7999999999997363 0.05 0
54 0.7500000000003469 0.1 0
55 0.7499999999998438 0.05 0
56 0.8499999999996044 0 0
57 0.89999999999966 0.05 0
58 0.8499999999997918 0.1 0
59 0.8499999999996981 0.05 0
60 0.9499999999998681 0 0
61 1 0.05 0
62 0.9499999999997918 0.1 0
63 0.94999999999983 0.05 0
$EndNodes
$Elements
40
1 3 2 1 1 1 23 27 26
2 3 2 1 1 23 5 24 27
3 3 2 1 1 27 24 22 25
4 3 2 1 1 26 27 25 4
5 3 2 1 1 5 28 31 24
6 3 2 1 1 28 6 29 31
7 3 2 1 1 31 29 21 30
8 3 2 1 1 24 31 30 22
9 3 2 1 1 6 32 35 29
10 3 2 1 1 32 7 33 35
11 3 2 1 1 35 33 20 34
12 3 2 1 1 29 35 34 21
13 3 2 1 1 7 36 39 33
14 3 2 1 1 36 8 37 39
15 3 2 1 1 39 37 19 38
16 3 2 1 1 33 39 38 20
17 3 2 1 1 8 40 43 37
18 3 2 1 1 40 9 41 43
19 3 2 1 1 43 41 18 42
20 3 2 1 1 37 43 42 19
21 3 2 1 1 9 44 47 41
22 3 2 1 1 44 10 45 47
23 3 2 1 1 47 45 17 46
24 3 2 1 1 41 47 46 18
25 3 2 1 1 10 48 51 45
26 3 2 1 1 48 11 49 51
27 3 2 1 1 51 49 16 50
28 3 2 1 1 45 51 50 17
29 3 2 1 1 11 52 55 49
30 3 2 1 1 52 12 53 55
31 3 2 1 1 55 53 15 54
32 3 2 1 1 49 55 54 16
33 3 2 1 1 12 56 59 53
34 3 2 1 1 56 13 57 59
35 3 2 1 1 59 57 14 58
36 3 2 1 1 53 59 58 15
37 3 2 1 1 13 60 63 57
38 3 2 1 1 60 2 61 63
39 3 2 1 1 63 61 3 62
40 3 2 1 1 57 63 62 14
$EndElements
